{
   "posts": [
      {
         "id": 1,
         "title": "welcome",
         "body": "Lorem ipsum dolor sit amet consectetur adipisicing elit. Doloribus sapiente ducimus repudiandae quod ipsa repellat provident eos aut, beatae recusandae libero molestias id esse tempore quo quidem animi ratione doloremque",
         "tags": ["webdev", "coding", "news"]
      },
      {
         "id": 2,
         "title": "top 5 css tips",
         "body": "Lorem ipsum dolor sit amet consectetur adipisicing elit. Doloribus sapiente ducimus repudiandae quod ipsa repellat provident eos aut, beatae recusandae libero molestias id esse tempore quo quidem animi ratione doloremque",
         "tags": ["css", "webdev", "coding"]
      }
   ]
}
